{
"type": "FeatureCollection",
"crs": { "type": "name", "properties": { "name": "urn:ogc:def:crs:EPSG::32748" } },
                                                                                
"features": [
{ "type": "Feature", "properties": { "KEYID": "TPH0004701", "MASTER_PETAK": "TPH00047", "BU": "JAMBI", "DISTRICT": "DA", "LAND_USE": "CP", "LAND_COVER": "HTI", "PROVINCE": "JAMBI", "ROTATION": 4, "Land_type": "3", "GlobalID": "{62E9094A-E18C-4075-B448-0C99234CF8F5}", "Shape_Length": 2264.666968, "Shape_Area": 180292.342050 }, "geometry": { "type": "MultiPolygon", "coordinates": [ [ [ [ 305963.32720000017, 9876844.5879 ], [ 305963.17879999988, 9876900.3066 ], [ 305962.9479, 9876906.0654 ], [ 305959.98770000041, 9876906.3953 ], [ 305962.98089999985, 9876906.0654 ], [ 305963.1623, 9876905.875399999 ], [ 305963.40969999973, 9876905.6555 ], [ 305963.67360000033, 9876905.455499999 ], [ 305963.9539, 9876905.285599999 ], [ 305964.2425, 9876905.1356 ], [ 305964.54760000017, 9876905.0056 ], [ 305964.86919999961, 9876904.9056 ], [ 305965.1908, 9876904.8256 ], [ 305965.51240000036, 9876904.775699999 ], [ 305969.9487, 9876904.3058 ], [ 305976.0258, 9876903.5359 ], [ 305976.07529999968, 9876903.5259 ], [ 305976.12480000034, 9876903.5259 ], [ 305976.1743, 9876903.5259 ], [ 305982.30090000015, 9876902.976 ], [ 305982.35039999988, 9876902.966 ], [ 305982.39989999961, 9876902.966 ], [ 305982.45760000031, 9876902.956 ], [ 305989.02130000014, 9876902.6261 ], [ 305989.046, 9876902.6261 ], [ 305989.0625, 9876902.6261 ], [ 305989.08729999978, 9876902.6261 ], [ 305995.88179999962, 9876902.406099999 ], [ 306002.2229000004, 9876902.1962 ], [ 306008.90199999977, 9876901.9762 ], [ 306008.99270000029, 9876901.9762 ], [ 306009.08339999989, 9876901.9762 ], [ 306009.17410000041, 9876901.9762 ], [ 306015.5976, 9876902.1962 ], [ 306021.3862, 9876902.316199999 ], [ 306026.34200000018, 9876902.2062 ], [ 306030.82770000026, 9876901.6863 ], [ 306031.01740000024, 9876901.6663 ], [ 306031.19880000036, 9876901.6563 ], [ 306031.38019999955, 9876901.6563 ], [ 306036.60809999984, 9876901.7663 ], [ 306036.76470000017, 9876901.7763 ], [ 306036.92140000034, 9876901.7863 ], [ 306037.07809999958, 9876901.806299999 ], [ 306042.5533, 9876902.5661 ], [ 306048.49029999971, 9876903.116 ], [ 306054.88910000026, 9876903.4359 ], [ 306061.24660000019, 9876903.4459 ], [ 306061.2631000001, 9876903.4459 ], [ 306061.28789999988, 9876903.4459 ], [ 306061.30439999979, 9876903.4459 ], [ 306067.76090000011, 9876903.5559 ], [ 306067.7938000001, 9876903.5559 ], [ 306067.81859999988, 9876903.5559 ], [ 306067.84329999983, 9876903.5559 ], [ 306073.96169999987, 9876903.7859 ], [ 306073.97, 9876903.7859 ], [ 306073.97819999978, 9876903.7859 ], [ 306079.32149999961, 9876904.0058 ], [ 306079.32980000041, 9876904.0058 ], [ 306084.335, 9876904.2258 ], [ 306084.36799999978, 9876904.2258 ], [ 306084.40099999961, 9876904.2358 ], [ 306084.4422000004, 9876904.2358 ], [ 306089.30730000045, 9876904.5757 ], [ 306093.39719999954, 9876904.7857 ], [ 306093.4796000002, 9876904.7957 ], [ 306093.57039999962, 9876904.8057 ], [ 306093.65280000027, 9876904.8156 ], [ 306097.43769999966, 9876905.2656 ], [ 306097.53660000023, 9876905.275599999 ], [ 306097.62729999982, 9876905.285599999 ], [ 306097.71800000034, 9876905.3055 ], [ 306101.16480000038, 9876905.965399999 ], [ 306101.44510000013, 9876906.0254 ], [ 306101.71719999984, 9876906.1154 ], [ 306101.98110000044, 9876906.215399999 ], [ 306105.00729999971, 9876907.5051 ], [ 306108.2397, 9876908.6849 ], [ 306108.27269999962, 9876908.6949 ], [ 306108.29739999957, 9876908.7049 ], [ 306108.33040000033, 9876908.7149 ], [ 306111.44730000012, 9876909.934599999 ], [ 306111.50509999972, 9876909.9646 ], [ 306111.57100000046, 9876909.9946 ], [ 306111.6288, 9876910.014599999 ], [ 306113.84690000024, 9876911.0144 ], [ 306113.98709999956, 9876911.0844 ], [ 306114.119, 9876911.1444 ], [ 306114.24270000029, 9876911.2243 ], [ 306114.41579999961, 9876911.3243 ], [ 306114.9024, 9876911.5643 ], [ 306115.20739999972, 9876911.6843 ], [ 306115.3806, 9876911.7742 ], [ 306115.66920000035, 9876911.9142 ], [ 306115.9496, 9876912.0842 ], [ 306116.22169999965, 9876912.2741 ], [ 306116.47730000038, 9876912.4941 ], [ 306116.70820000023, 9876912.724 ], [ 306116.92260000017, 9876912.974 ], [ 306117.11220000032, 9876913.243899999 ], [ 306117.1782, 9876913.3439 ], [ 306117.574, 9876913.5939 ], [ 306117.83789999969, 9876913.7038 ], [ 306118.09350000042, 9876913.8438 ], [ 306118.33260000031, 9876913.993799999 ], [ 306119.2397, 9876914.6037 ], [ 306120.25389999989, 9876915.2035 ], [ 306120.31989999954, 9876915.2335 ], [ 306120.37760000024, 9876915.273499999 ], [ 306120.4353, 9876915.3135 ], [ 306121.2846, 9876915.8834 ], [ 306123.56869999971, 9876917.1131 ], [ 306123.67590000015, 9876917.1731 ], [ 306123.77489999961, 9876917.2331 ], [ 306123.8821, 9876917.303099999 ], [ 306124.8881000001, 9876917.973 ], [ 306124.9046, 9876917.983 ], [ 306124.9293, 9876918.003 ], [ 306124.94579999987, 9876918.013 ], [ 306125.82809999958, 9876918.6228 ], [ 306126.6939000003, 9876919.0627 ], [ 306126.83409999963, 9876919.1327 ], [ 306126.966, 9876919.2127 ], [ 306127.10620000027, 9876919.2927 ], [ 306127.972, 9876919.8726 ], [ 306128.84609999973, 9876920.352499999 ], [ 306128.9698, 9876920.432499999 ], [ 306129.09339999966, 9876920.5025 ], [ 306129.2171, 9876920.5924 ], [ 306129.99220000021, 9876921.1423 ], [ 306130.19010000024, 9876921.2923 ], [ 306130.4375, 9876921.5123 ], [ 306130.66839999985, 9876921.7422 ], [ 306130.87459999975, 9876922.0022 ], [ 306130.93230000045, 9876922.0721 ], [ 306131.97950000037, 9876922.962 ], [ 306138.3783, 9876928.0109 ], [ 306145.36249999981, 9876933.129899999 ], [ 306150.6316, 9876935.8693 ], [ 306150.92019999959, 9876936.0293 ], [ 306151.19230000023, 9876936.2193 ], [ 306151.4479, 9876936.429199999 ], [ 306151.68709999975, 9876936.6592 ], [ 306151.90969999973, 9876936.9091 ], [ 306152.09939999972, 9876937.1691 ], [ 306152.28079999983, 9876937.449 ], [ 306152.42920000013, 9876937.7489 ], [ 306152.55289999954, 9876938.0589 ], [ 306152.65180000011, 9876938.368799999 ], [ 306152.72599999979, 9876938.6888 ], [ 306152.77550000045, 9876939.0187 ], [ 306152.79200000037, 9876939.3486 ], [ 306152.78380000032, 9876939.6786 ], [ 306152.75079999957, 9876940.0085 ], [ 306152.6848, 9876940.3284 ], [ 306152.59410000034, 9876940.648399999 ], [ 306152.4869, 9876940.9583 ], [ 306152.34669999965, 9876941.258199999 ], [ 306152.18180000037, 9876941.5482 ], [ 306151.99220000021, 9876941.8181 ], [ 306151.78600000031, 9876942.0781 ], [ 306151.55510000046, 9876942.318 ], [ 306151.3078, 9876942.528 ], [ 306151.0356, 9876942.7279 ], [ 306150.75530000031, 9876942.8979 ], [ 306150.46669999976, 9876943.0579 ], [ 306150.15330000035, 9876943.1778 ], [ 306149.84, 9876943.277799999 ], [ 306149.51840000041, 9876943.3478 ], [ 306149.1886, 9876943.3978 ], [ 306148.85869999975, 9876943.4178 ], [ 306148.52890000027, 9876943.4078 ], [ 306148.20729999989, 9876943.3778 ], [ 306147.87750000041, 9876943.3078 ], [ 306147.5641, 9876943.2278 ], [ 306147.25079999957, 9876943.107899999 ], [ 306146.9539, 9876942.9679 ], [ 306141.40450000018, 9876940.0885 ], [ 306141.2231, 9876939.9885 ], [ 306141.0499, 9876939.8785 ], [ 306140.87679999974, 9876939.7685 ], [ 306133.58739999961, 9876934.4196 ], [ 306133.54619999975, 9876934.389599999 ], [ 306133.5132, 9876934.3596 ], [ 306133.472, 9876934.3296 ], [ 306126.97429999989, 9876929.2007 ], [ 306126.9495000001, 9876929.1707 ], [ 306126.91650000028, 9876929.150699999 ], [ 306126.88360000029, 9876929.1207 ], [ 306125.43230000045, 9876927.901 ], [ 306125.20969999954, 9876927.701 ], [ 306124.9953, 9876927.481 ], [ 306124.84680000041, 9876927.3011 ], [ 306124.76439999975, 9876927.2411 ], [ 306123.94799999986, 9876926.7912 ], [ 306123.85730000027, 9876926.7412 ], [ 306123.77489999961, 9876926.6812 ], [ 306123.6842, 9876926.6312 ], [ 306122.8843, 9876926.101299999 ], [ 306121.98550000042, 9876925.6414 ], [ 306121.82060000021, 9876925.5614 ], [ 306121.6639, 9876925.4614 ], [ 306121.50729999971, 9876925.3615 ], [ 306120.4271, 9876924.6116 ], [ 306119.6025, 9876924.0617 ], [ 306117.31840000022, 9876922.832 ], [ 306117.21119999979, 9876922.772 ], [ 306117.11220000032, 9876922.712 ], [ 306117.00499999989, 9876922.642 ], [ 306116.08980000019, 9876922.0321 ], [ 306115.06730000023, 9876921.4223 ], [ 306115.00129999965, 9876921.3823 ], [ 306114.9353, 9876921.3423 ], [ 306114.87760000024, 9876921.3023 ], [ 306114.23440000042, 9876920.8724 ], [ 306113.52529999986, 9876920.5924 ], [ 306113.36039999966, 9876920.5225 ], [ 306113.19550000038, 9876920.4425 ], [ 306113.03050000034, 9876920.3625 ], [ 306112.2472000001, 9876919.922599999 ], [ 306112.20600000024, 9876919.8926 ], [ 306111.92559999973, 9876919.7126 ], [ 306111.6617, 9876919.5227 ], [ 306111.41440000013, 9876919.2927 ], [ 306111.19170000032, 9876919.0528 ], [ 306110.8289, 9876918.7028 ], [ 306110.59800000023, 9876918.4729 ], [ 306110.35890000034, 9876918.2229 ], [ 306108.43759999983, 9876917.3531 ], [ 306105.45260000043, 9876916.1833 ], [ 306102.16249999963, 9876914.9836 ], [ 306102.09659999982, 9876914.9536 ], [ 306102.03060000017, 9876914.933599999 ], [ 306101.9646, 9876914.9036 ], [ 306099.24349999987, 9876913.743799999 ], [ 306096.3574000001, 9876913.1939 ], [ 306092.83650000021, 9876912.774 ], [ 306088.84549999982, 9876912.564099999 ], [ 306088.829, 9876912.554099999 ], [ 306088.8043, 9876912.554099999 ], [ 306088.77950000018, 9876912.554099999 ], [ 306083.9392, 9876912.2141 ], [ 306078.9835, 9876912.0042 ], [ 306073.65660000034, 9876911.7842 ], [ 306067.5877, 9876911.5543 ], [ 306061.19720000029, 9876911.4443 ], [ 306054.77369999979, 9876911.4343 ], [ 306054.70770000014, 9876911.4343 ], [ 306054.65000000037, 9876911.4343 ], [ 306054.584, 9876911.4343 ], [ 306048.0121, 9876911.1044 ], [ 306047.95430000033, 9876911.0944 ], [ 306047.89659999963, 9876911.0944 ], [ 306047.8471, 9876911.0844 ], [ 306041.72869999986, 9876910.524499999 ], [ 306041.6628, 9876910.524499999 ], [ 306041.59680000041, 9876910.5145 ], [ 306041.5391, 9876910.5045 ], [ 306036.204, 9876909.7546 ], [ 306031.4874, 9876909.6647 ], [ 306027.09240000043, 9876910.1746 ], [ 306026.96040000021, 9876910.194599999 ], [ 306026.83669999987, 9876910.2046 ], [ 306026.70480000041, 9876910.2046 ], [ 306021.4687, 9876910.3145 ], [ 306021.41920000035, 9876910.3145 ], [ 306021.36149999965, 9876910.3145 ], [ 306021.30379999988, 9876910.3145 ], [ 306015.40799999982, 9876910.194599999 ], [ 306015.3915, 9876910.194599999 ], [ 306015.375, 9876910.194599999 ], [ 306015.3503, 9876910.194599999 ], [ 306009.034, 9876909.9746 ], [ 306002.4868, 9876910.194599999 ], [ 305996.14570000023, 9876910.4045 ], [ 305989.38410000037, 9876910.6245 ], [ 305982.9359, 9876910.9444 ], [ 305976.95760000031, 9876911.4843 ], [ 305970.9134, 9876912.2441 ], [ 305970.8887, 9876912.2441 ], [ 305970.86390000023, 9876912.2541 ], [ 305970.83920000028, 9876912.2541 ], [ 305966.37000000011, 9876912.734 ], [ 305966.04009999987, 9876912.754 ], [ 305965.71030000038, 9876912.744 ], [ 305965.3805, 9876912.714 ], [ 305965.05059999973, 9876912.6541 ], [ 305964.73730000015, 9876912.564099999 ], [ 305964.42389999982, 9876912.4541 ], [ 305964.12710000016, 9876912.314099999 ], [ 305963.83849999961, 9876912.1542 ], [ 305963.63229999971, 9876912.0242 ], [ 305958.84970000014, 9876912.564099999 ], [ 305953.63839999959, 9876913.6139 ], [ 305949.0784, 9876914.9136 ], [ 305952.1129, 9876914.0538 ], [ 305951.14809999987, 9876917.993 ], [ 305952.25310000032, 9876938.2288 ], [ 305953.22609999962, 9876969.762399999 ], [ 305954.00119999982, 9876985.1193 ], [ 305955.98020000011, 9877025.2611 ], [ 305955.97190000024, 9877047.376599999 ], [ 305954.29800000042, 9877048.816299999 ], [ 305953.96, 9877049.8061 ], [ 305953.29200000037, 9877063.3034 ], [ 305953.28380000032, 9877064.0732 ], [ 305955.50189999957, 9877085.198899999 ], [ 305955.50189999957, 9877086.6286 ], [ 305955.27929999959, 9877088.1783 ], [ 305955.05669999961, 9877088.5083 ], [ 305953.58889999986, 9877113.8331 ], [ 305953.58889999986, 9877116.3826 ], [ 305953.58889999986, 9877117.8123 ], [ 305956.57390000019, 9877141.0976 ], [ 305955.22979999986, 9877144.1169 ], [ 305955.06489999965, 9877146.966399999 ], [ 305951.45320000034, 9877161.273399999 ], [ 305951.33779999986, 9877161.603399999 ], [ 305951.1151, 9877163.373 ], [ 305949.99370000046, 9877182.0592 ], [ 305949.5402, 9877184.4987 ], [ 305945.96970000025, 9877210.7034 ], [ 305946.4068, 9877211.6932 ], [ 305946.72840000037, 9877236.248199999 ], [ 305947.06639999989, 9877238.1278 ], [ 305946.37380000018, 9877273.8405 ], [ 305950.33179999981, 9877360.4129 ], [ 305950.34829999972, 9877361.9926 ], [ 306335.0334, 9877366.2717 ], [ 306334.89319999982, 9877362.6525 ], [ 306334.88499999978, 9877357.0236 ], [ 306340.7478, 9877060.544 ], [ 306340.7478, 9877059.6541 ], [ 306340.41789999977, 9877052.2456 ], [ 306342.66909999959, 9877008.3446 ], [ 306342.24849999975, 9877008.1246 ], [ 306341.21779999975, 9877007.5747 ], [ 306334.39020000026, 9877003.9355 ], [ 306320.966, 9877000.2662 ], [ 306305.38960000034, 9876996.387 ], [ 306286.4654000001, 9876991.8379 ], [ 306266.88150000013, 9876986.189099999 ], [ 306247.5203, 9876979.6504 ], [ 306234.2774, 9876974.8914 ], [ 306214.2483, 9876965.703299999 ], [ 306201.67339999974, 9876960.2744 ], [ 306186.64940000046, 9876954.1856 ], [ 306168.49210000038, 9876945.8373 ], [ 306167.61799999978, 9876945.4374 ], [ 306167.60149999987, 9876943.6877 ], [ 306167.5438000001, 9876938.7687 ], [ 306167.5438000001, 9876932.66 ], [ 306167.05730000045, 9876904.7057 ], [ 306167.04079999961, 9876903.9958 ], [ 306166.66980000027, 9876883.55 ], [ 306166.3317, 9876864.7138 ], [ 306155.26580000017, 9876863.044199999 ], [ 306149.1968, 9876859.9448 ], [ 306133.95849999972, 9876851.706499999 ], [ 306132.2846, 9876850.0868 ], [ 306118.8191, 9876845.2178 ], [ 306112.71719999984, 9876844.258 ], [ 306103.23450000025, 9876842.7783 ], [ 306086.32230000012, 9876828.8311 ], [ 306067.1837, 9876819.8629 ], [ 306049.71899999958, 9876813.554199999 ], [ 306035.69280000031, 9876804.696 ], [ 306034.8022, 9876804.0362 ], [ 306034.1426, 9876802.5965 ], [ 306032.13879999984, 9876800.606899999 ], [ 306023.761, 9876796.4077 ], [ 306022.82930000033, 9876794.7081 ], [ 306022.46640000027, 9876793.7783 ], [ 306021.64190000016, 9876792.5185 ], [ 306020.6194000002, 9876791.6687 ], [ 306018.72279999964, 9876790.089 ], [ 306017.74980000034, 9876788.8792 ], [ 306012.56319999974, 9876785.9998 ], [ 306012.08490000013, 9876785.8999 ], [ 306008.68759999983, 9876786.2698 ], [ 306006.84059999976, 9876786.1598 ], [ 306005.24089999963, 9876785.5799 ], [ 306002.7176, 9876784.1302 ], [ 305999.99650000036, 9876782.9305 ], [ 305998.37210000027, 9876782.7305 ], [ 305996.7229000004, 9876782.920499999 ], [ 305995.01599999983, 9876783.510299999 ], [ 305993.11120000016, 9876784.3602 ], [ 305991.59399999958, 9876784.6601 ], [ 305989.54079999961, 9876784.430199999 ], [ 305987.72670000046, 9876784.100199999 ], [ 305986.67949999962, 9876783.6903 ], [ 305984.63449999969, 9876783.8703 ], [ 305982.6967000002, 9876783.6103 ], [ 305981.05580000021, 9876784.1502 ], [ 305979.6458, 9876785.32 ], [ 305978.82940000016, 9876787.1896 ], [ 305977.56780000031, 9876789.0792 ], [ 305973.08210000023, 9876790.3789 ], [ 305968.81070000026, 9876791.6087 ], [ 305968.81070000026, 9876792.8684 ], [ 305968.81900000013, 9876853.6061 ], [ 305968.81900000013, 9876863.3341 ], [ 305968.43140000012, 9876862.384299999 ], [ 305967.6563, 9876860.0548 ], [ 305966.88119999971, 9876858.6151 ], [ 305966.32050000038, 9876857.0754 ], [ 305965.54540000018, 9876854.086 ], [ 305965.54540000018, 9876851.7664 ], [ 305963.32720000017, 9876844.5879 ] ] ] ] } }
]
}
